{
  "project_info": {
    "project_number": "413291641246",
    "firebase_url": "https://itchap-e0b16.firebaseio.com",
    "project_id": "itchap-e0b16",
    "storage_bucket": "itchap-e0b16.appspot.com"
  },
  "client": [
    {
      "client_info": {
        "mobilesdk_app_id": "1:413291641246:android:fe7800a9a2579dda",
        "android_client_info": {
          "package_name": "com.uandm.administrator.itsuandm"
        }
      },
      "oauth_client": [
        {
          "client_id": "413291641246-e55ej3gcqac78ott90seb697sigq0b6o.apps.googleusercontent.com",
          "client_type": 3
        }
      ],
      "api_key": [
        {
          "current_key": "AIzaSyAcb3XvneIH8uIyJPhiwB4mEcP3dN_Bt44"
        }
      ],
      "services": {
        "analytics_service": {
          "status": 1
        },
        "appinvite_service": {
          "status": 1,
          "other_platform_oauth_client": []
        },
        "ads_service": {
          "status": 2
        }
      }
    }
  ],
  "configuration_version": "1"
}